{
    "app": {
        "type": "process",
        "tecnology": "dotnet",
        "name": "ONS.SAGER.Calculo.Taxa.Teifa.Mensal",
        "container": "onssagercalculotaxateifamensal",
        "version": "1.0",
		"date_begin_validity": "1900-01-01T00:00:00.00",
        "date_end_validity": "2014-09-30T00:00:00.00",       
        "description": "",
        "author": "Lucas Rosa",
        "id": "fb1c741f-5246-409a-bb51-654dc3cd53e3"
    },
    "solution": {
        "name": "sager",
        "description": "Solução do SAGER",
        "id": "a22d9e4d-c352-4ac2-8321-2c496fe3a116",
        "id_domain": 1
    }
}